16/07/15 15:13:08 INFO sqoop.Sqoop: Running Sqoop version: 1.4.5.2.2.8.0-3150
SLF4J: Class path contains multiple SLF4J bindings.
SLF4J: Found binding in [jar:file:/usr/hdp/2.2.8.0-3150/hadoop/lib/slf4j-log4j12-1.7.5.jar!/org/slf4j/impl/StaticLoggerBinder.class]
SLF4J: Found binding in [jar:file:/usr/hdp/2.2.8.0-3150/zookeeper/lib/slf4j-log4j12-1.6.1.jar!/org/slf4j/impl/StaticLoggerBinder.class]
SLF4J: Found binding in [jar:file:/usr/hdp/2.2.8.0-3150/hive/lib/hive-jdbc-0.14.0.2.2.8.0-3150-standalone.jar!/org/slf4j/impl/StaticLoggerBinder.class]
SLF4J: See http://www.slf4j.org/codes.html#multiple_bindings for an explanation.
SLF4J: Actual binding is of type [org.slf4j.impl.Log4jLoggerFactory]
16/07/15 15:13:10 WARN tool.BaseSqoopTool: Setting your password on the command-line is insecure. Consider using -P instead.
16/07/15 15:13:10 WARN sqoop.ConnFactory: Parameter --driver is set to an explicit driver however appropriate connection manager is not being set (via --connection-manager). Sqoop is going to fall back to org.apache.sqoop.manager.GenericJdbcManager. Please specify explicitly which connection manager should be used next time.
16/07/15 15:13:10 INFO manager.SqlManager: Using default fetchSize of 1000
16/07/15 16:13:32 INFO tool.EvalSqlTool: 0 row(s) updated.
16/07/15 16:13:41 WARN conf.HiveConf: HiveConf of name hive.optimize.mapjoin.mapreduce does not exist
16/07/15 16:13:41 WARN conf.HiveConf: HiveConf of name hive.heapsize does not exist
16/07/15 16:13:41 WARN conf.HiveConf: HiveConf of name hive.server2.enable.impersonation does not exist
16/07/15 16:13:41 WARN conf.HiveConf: HiveConf of name hive.auto.convert.sortmerge.join.noconditionaltask does not exist
SLF4J: Class path contains multiple SLF4J bindings.
SLF4J: Found binding in [jar:file:/usr/hdp/2.2.8.0-3150/hadoop/lib/slf4j-log4j12-1.7.5.jar!/org/slf4j/impl/StaticLoggerBinder.class]
SLF4J: Found binding in [jar:file:/usr/hdp/2.2.8.0-3150/hive/lib/hive-jdbc-0.14.0.2.2.8.0-3150-standalone.jar!/org/slf4j/impl/StaticLoggerBinder.class]
SLF4J: See http://www.slf4j.org/codes.html#multiple_bindings for an explanation.
SLF4J: Actual binding is of type [org.slf4j.impl.Log4jLoggerFactory]
16/07/15 16:13:49 INFO sqoop.Sqoop: Running Sqoop version: 1.4.5.2.2.8.0-3150
SLF4J: Class path contains multiple SLF4J bindings.
SLF4J: Found binding in [jar:file:/usr/hdp/2.2.8.0-3150/hadoop/lib/slf4j-log4j12-1.7.5.jar!/org/slf4j/impl/StaticLoggerBinder.class]
SLF4J: Found binding in [jar:file:/usr/hdp/2.2.8.0-3150/zookeeper/lib/slf4j-log4j12-1.6.1.jar!/org/slf4j/impl/StaticLoggerBinder.class]
SLF4J: Found binding in [jar:file:/usr/hdp/2.2.8.0-3150/hive/lib/hive-jdbc-0.14.0.2.2.8.0-3150-standalone.jar!/org/slf4j/impl/StaticLoggerBinder.class]
SLF4J: See http://www.slf4j.org/codes.html#multiple_bindings for an explanation.
SLF4J: Actual binding is of type [org.slf4j.impl.Log4jLoggerFactory]
16/07/15 16:13:50 WARN tool.BaseSqoopTool: Setting your password on the command-line is insecure. Consider using -P instead.
16/07/15 16:13:50 WARN sqoop.ConnFactory: Parameter --driver is set to an explicit driver however appropriate connection manager is not being set (via --connection-manager). Sqoop is going to fall back to org.apache.sqoop.manager.GenericJdbcManager. Please specify explicitly which connection manager should be used next time.
16/07/15 16:13:50 INFO manager.SqlManager: Using default fetchSize of 1000
16/07/15 16:13:52 INFO tool.EvalSqlTool: 0 row(s) updated.
16/07/15 16:13:55 INFO sqoop.Sqoop: Running Sqoop version: 1.4.5.2.2.8.0-3150
SLF4J: Class path contains multiple SLF4J bindings.
SLF4J: Found binding in [jar:file:/usr/hdp/2.2.8.0-3150/hadoop/lib/slf4j-log4j12-1.7.5.jar!/org/slf4j/impl/StaticLoggerBinder.class]
SLF4J: Found binding in [jar:file:/usr/hdp/2.2.8.0-3150/zookeeper/lib/slf4j-log4j12-1.6.1.jar!/org/slf4j/impl/StaticLoggerBinder.class]
SLF4J: Found binding in [jar:file:/usr/hdp/2.2.8.0-3150/hive/lib/hive-jdbc-0.14.0.2.2.8.0-3150-standalone.jar!/org/slf4j/impl/StaticLoggerBinder.class]
SLF4J: See http://www.slf4j.org/codes.html#multiple_bindings for an explanation.
SLF4J: Actual binding is of type [org.slf4j.impl.Log4jLoggerFactory]
16/07/15 16:13:56 WARN tool.BaseSqoopTool: Setting your password on the command-line is insecure. Consider using -P instead.
16/07/15 16:13:56 WARN sqoop.ConnFactory: Parameter --driver is set to an explicit driver however appropriate connection manager is not being set (via --connection-manager). Sqoop is going to fall back to org.apache.sqoop.manager.GenericJdbcManager. Please specify explicitly which connection manager should be used next time.
16/07/15 16:13:56 INFO manager.SqlManager: Using default fetchSize of 1000
16/07/15 16:13:56 INFO tool.CodeGenTool: Beginning code generation
16/07/15 16:13:58 INFO manager.SqlManager: Executing SQL statement: SELECT t.* FROM iDeskTemp.dbo.GOPaoloni AS t WHERE 1=0
16/07/15 16:13:58 INFO manager.SqlManager: Executing SQL statement: SELECT t.* FROM iDeskTemp.dbo.GOPaoloni AS t WHERE 1=0
16/07/15 16:13:59 INFO orm.CompilationManager: HADOOP_MAPRED_HOME is /usr/hdp/2.2.8.0-3150/hadoop-mapreduce
Note: /tmp/sqoop-gc096s/compile/05b58ddfbb4acf0a9cd26eb4408cbbeb/iDeskTemp_dbo_GOPaoloni.java uses or overrides a deprecated API.
Note: Recompile with -Xlint:deprecation for details.
16/07/15 16:14:02 INFO orm.CompilationManager: Writing jar file: /tmp/sqoop-gc096s/compile/05b58ddfbb4acf0a9cd26eb4408cbbeb/iDeskTemp.dbo.GOPaoloni.jar
16/07/15 16:14:02 INFO mapreduce.ExportJobBase: Beginning export of iDeskTemp.dbo.GOPaoloni
16/07/15 16:14:04 INFO manager.SqlManager: Executing SQL statement: SELECT t.* FROM iDeskTemp.dbo.GOPaoloni AS t WHERE 1=0
16/07/15 16:14:05 INFO impl.TimelineClientImpl: Timeline service address: http://ylpd273.kmdc.att.com:8188/ws/v1/timeline/
16/07/15 16:14:06 INFO hdfs.DFSClient: Created HDFS_DELEGATION_TOKEN token 6606790 for gc096s on ha-hdfs:COREITKGMTNC20PROD01
16/07/15 16:14:06 INFO security.TokenCache: Got dt for hdfs://COREITKGMTNC20PROD01; Kind: HDFS_DELEGATION_TOKEN, Service: ha-hdfs:COREITKGMTNC20PROD01, Ident: (HDFS_DELEGATION_TOKEN token 6606790 for gc096s)
16/07/15 16:14:07 INFO input.FileInputFormat: Total input paths to process : 1
16/07/15 16:14:07 INFO input.FileInputFormat: Total input paths to process : 1
16/07/15 16:14:08 INFO mapreduce.JobSubmitter: number of splits:128
16/07/15 16:14:08 INFO mapreduce.JobSubmitter: Submitting tokens for job: job_1468088979264_114284
16/07/15 16:14:08 INFO mapreduce.JobSubmitter: Kind: HDFS_DELEGATION_TOKEN, Service: ha-hdfs:COREITKGMTNC20PROD01, Ident: (HDFS_DELEGATION_TOKEN token 6606790 for gc096s)
16/07/15 16:14:09 INFO impl.YarnClientImpl: Submitted application application_1468088979264_114284
16/07/15 16:14:09 INFO mapreduce.Job: The url to track the job: http://ylpd269.kmdc.att.com:8088/proxy/application_1468088979264_114284/
16/07/15 16:14:09 INFO mapreduce.Job: Running job: job_1468088979264_114284
16/07/15 16:14:17 INFO mapreduce.Job: Job job_1468088979264_114284 running in uber mode : false
16/07/15 16:14:17 INFO mapreduce.Job:  map 0% reduce 0%
16/07/15 16:14:31 INFO mapreduce.Job:  map 8% reduce 0%
16/07/15 16:14:32 INFO mapreduce.Job:  map 20% reduce 0%
16/07/15 16:14:34 INFO mapreduce.Job:  map 22% reduce 0%
16/07/15 16:14:35 INFO mapreduce.Job:  map 27% reduce 0%
16/07/15 16:14:36 INFO mapreduce.Job:  map 28% reduce 0%
16/07/15 16:14:37 INFO mapreduce.Job:  map 29% reduce 0%
16/07/15 16:14:38 INFO mapreduce.Job:  map 36% reduce 0%
16/07/15 16:14:40 INFO mapreduce.Job:  map 37% reduce 0%
16/07/15 16:14:41 INFO mapreduce.Job:  map 44% reduce 0%
16/07/15 16:14:43 INFO mapreduce.Job:  map 45% reduce 0%
16/07/15 16:14:45 INFO mapreduce.Job:  map 52% reduce 0%
16/07/15 16:14:47 INFO mapreduce.Job:  map 53% reduce 0%
16/07/15 16:14:48 INFO mapreduce.Job:  map 60% reduce 0%
16/07/15 16:14:51 INFO mapreduce.Job:  map 68% reduce 0%
16/07/15 16:14:54 INFO mapreduce.Job:  map 75% reduce 0%
16/07/15 16:14:55 INFO mapreduce.Job:  map 76% reduce 0%
16/07/15 16:14:57 INFO mapreduce.Job:  map 82% reduce 0%
16/07/15 16:14:58 INFO mapreduce.Job:  map 83% reduce 0%
16/07/15 16:15:00 INFO mapreduce.Job:  map 88% reduce 0%
16/07/15 16:15:03 INFO mapreduce.Job:  map 92% reduce 0%
16/07/15 16:15:06 INFO mapreduce.Job:  map 94% reduce 0%
16/07/15 16:15:09 INFO mapreduce.Job:  map 95% reduce 0%
16/07/15 16:15:12 INFO mapreduce.Job:  map 96% reduce 0%
16/07/15 16:16:02 INFO mapreduce.Job:  map 97% reduce 0%
16/07/15 16:31:42 INFO mapreduce.Job:  map 98% reduce 0%
16/07/15 16:46:39 INFO mapreduce.Job:  map 99% reduce 0%
16/07/15 17:11:13 INFO mapreduce.Job:  map 100% reduce 0%
16/07/15 17:19:25 INFO mapreduce.Job: Task Id : attempt_1468088979264_114284_m_000033_0, Status : FAILED
Error: java.io.IOException: Can't export data, please check failed map task logs
	at org.apache.sqoop.mapreduce.TextExportMapper.map(TextExportMapper.java:112)
	at org.apache.sqoop.mapreduce.TextExportMapper.map(TextExportMapper.java:39)
	at org.apache.hadoop.mapreduce.Mapper.run(Mapper.java:145)
	at org.apache.sqoop.mapreduce.AutoProgressMapper.run(AutoProgressMapper.java:64)
	at org.apache.hadoop.mapred.MapTask.runNewMapper(MapTask.java:784)
	at org.apache.hadoop.mapred.MapTask.run(MapTask.java:341)
	at org.apache.hadoop.mapred.YarnChild$2.run(YarnChild.java:163)
	at java.security.AccessController.doPrivileged(Native Method)
	at javax.security.auth.Subject.doAs(Subject.java:415)
	at org.apache.hadoop.security.UserGroupInformation.doAs(UserGroupInformation.java:1671)
	at org.apache.hadoop.mapred.YarnChild.main(YarnChild.java:158)
Caused by: java.io.IOException: com.microsoft.sqlserver.jdbc.SQLServerException: The connection is closed.
	at org.apache.sqoop.mapreduce.AsyncSqlRecordWriter.write(AsyncSqlRecordWriter.java:220)
	at org.apache.sqoop.mapreduce.AsyncSqlRecordWriter.write(AsyncSqlRecordWriter.java:46)
	at org.apache.hadoop.mapred.MapTask$NewDirectOutputCollector.write(MapTask.java:655)
	at org.apache.hadoop.mapreduce.task.TaskInputOutputContextImpl.write(TaskInputOutputContextImpl.java:89)
	at org.apache.hadoop.mapreduce.lib.map.WrappedMapper$Context.write(WrappedMapper.java:112)
	at org.apache.sqoop.mapreduce.TextExportMapper.map(TextExportMapper.java:84)
	... 10 more
Caused by: com.microsoft.sqlserver.jdbc.SQLServerException: The connection is closed.
	at com.microsoft.sqlserver.jdbc.SQLServerException.makeFromDriverError(SQLServerException.java:190)
	at com.microsoft.sqlserver.jdbc.SQLServerConnection.checkClosed(SQLServerConnection.java:388)
	at com.microsoft.sqlserver.jdbc.SQLServerConnection.prepareStatement(SQLServerConnection.java:2166)
	at com.microsoft.sqlserver.jdbc.SQLServerConnection.prepareStatement(SQLServerConnection.java:1853)
	at org.apache.sqoop.mapreduce.ExportBatchOutputFormat$ExportBatchRecordWriter.getPreparedStatement(ExportBatchOutputFormat.java:84)
	at org.apache.sqoop.mapreduce.AsyncSqlRecordWriter.execUpdate(AsyncSqlRecordWriter.java:149)
	at org.apache.sqoop.mapreduce.AsyncSqlRecordWriter.write(AsyncSqlRecordWriter.java:215)
	... 15 more

16/07/15 17:19:26 INFO mapreduce.Job:  map 99% reduce 0%
16/07/15 17:19:55 INFO mapreduce.Job:  map 100% reduce 0%
16/07/15 17:27:31 INFO mapreduce.Job: Job job_1468088979264_114284 completed successfully
16/07/15 17:27:32 INFO mapreduce.Job: Counters: 32
	File System Counters
		FILE: Number of bytes read=0
		FILE: Number of bytes written=25832082
		FILE: Number of read operations=0
		FILE: Number of large read operations=0
		FILE: Number of write operations=0
		HDFS: Number of bytes read=50347275
		HDFS: Number of bytes written=0
		HDFS: Number of read operations=515
		HDFS: Number of large read operations=0
		HDFS: Number of write operations=0
	Job Counters 
		Failed map tasks=1
		Launched map tasks=129
		Other local map tasks=124
		Rack-local map tasks=5
		Total time spent by all maps in occupied slots (ms)=23031258
		Total time spent by all reduces in occupied slots (ms)=0
		Total time spent by all map tasks (ms)=23031258
		Total vcore-seconds taken by all map tasks=23031258
		Total megabyte-seconds taken by all map tasks=235840081920
	Map-Reduce Framework
		Map input records=257314
		Map output records=257314
		Input split bytes=19673
		Spilled Records=0
		Failed Shuffles=0
		Merged Map outputs=0
		GC time elapsed (ms)=6533
		CPU time spent (ms)=444660
		Physical memory (bytes) snapshot=44873003008
		Virtual memory (bytes) snapshot=1240741949440
		Total committed heap usage (bytes)=274972278784
	File Input Format Counters 
		Bytes Read=0
	File Output Format Counters 
		Bytes Written=0
16/07/15 17:27:32 INFO mapreduce.ExportJobBase: Transferred 48.0149 MB in 4,407.8537 seconds (11.1545 KB/sec)
16/07/15 17:27:32 INFO mapreduce.ExportJobBase: Exported 257314 records.
init
sqoop  eval \
-libjars '/usr/hdp/2.2.8.0-3150/sqoop/lib/sqljdbc4.jar' \
--driver 'com.microsoft.sqlserver.jdbc.SQLServerDriver' \
--connect 'jdbc:sqlserver://Clddev0sql01683.itservices.sbc.com\DD_ECCRIX01' \
--username 'iDESK-REPORTUSER' \
--password 'du3!Tax3s' \
--query 'drop table iDeskTemp.dbo.GOPaoloni' 
result:
Warning: /usr/hdp/2.2.8.0-3150/accumulo does not exist! Accumulo imports will fail.
Please set $ACCUMULO_HOME to the root of your Accumulo installation.

['sr_id               ', 'string              ', '                    ']
['updtby_uid          ', 'string              ', '                    ']
['sr_status           ', 'string              ', '                    ']
['sr_submitted_date   ', 'string              ', '                    ']
['sr_reason           ', 'string              ', '                    ']
['sr_productlist      ', 'string              ', '                    ']
['task_name           ', 'string              ', '                    ']
['order_type          ', 'string              ', '                    ']
['task_completed_actual_date', 'string              ', '                    ']
['task_level          ', 'int                 ', '                    ']
['task_jeopardy_color ', 'string              ', '                    ']
['task_duration       ', 'int                 ', '                    ']
['task_product_group  ', 'string              ', '                    ']
['']
sqoop  eval \
-libjars '/usr/hdp/2.2.8.0-3150/sqoop/lib/sqljdbc4.jar' \
--driver 'com.microsoft.sqlserver.jdbc.SQLServerDriver' \
--connect 'jdbc:sqlserver://Clddev0sql01683.itservices.sbc.com\DD_ECCRIX01' \
--username 'iDESK-REPORTUSER' \
--password 'du3!Tax3s' \
--query 'create table iDeskTemp.dbo.GOPaoloni(
sr_id varchar(2000),updtby_uid varchar(2000),sr_status varchar(2000),sr_submitted_date varchar(2000),sr_reason varchar(2000),sr_productlist varchar(2000),task_name varchar(2000),order_type varchar(2000),task_completed_actual_date varchar(2000),task_level int,task_jeopardy_color varchar(2000),task_duration int,task_product_group varchar(2000))' 
result:
Warning: /usr/hdp/2.2.8.0-3150/accumulo does not exist! Accumulo imports will fail.
Please set $ACCUMULO_HOME to the root of your Accumulo installation.

sqoop  export -libjars '/usr/hdp/2.2.8.0-3150/sqoop/lib/sqljdbc4.jar' \
-m 128 \
--driver 'com.microsoft.sqlserver.jdbc.SQLServerDriver' \
--connect 'jdbc:sqlserver://Clddev0sql01683.itservices.sbc.com\DD_ECCRIX01' \
--username 'iDESK-REPORTUSER' \
--password 'du3!Tax3s' \
--table 'iDeskTemp.dbo.GOPaoloni' \
--export-dir 'hdfs://COREITKGMTNC20PROD01/sandbox/sandbox31/kpmg_ws/gopaoloni' \
--fields-terminated-by "\001" \
--lines-terminated-by "\\n" \
--input-null-string '\\N' \
--input-null-non-string '\\N' \
--batch
result:
Warning: /usr/hdp/2.2.8.0-3150/accumulo does not exist! Accumulo imports will fail.
Please set $ACCUMULO_HOME to the root of your Accumulo installation.

16/07/18 15:04:40 INFO sqoop.Sqoop: Running Sqoop version: 1.4.6.2.3.4.29-1
SLF4J: Class path contains multiple SLF4J bindings.
SLF4J: Found binding in [jar:file:/usr/hdp/2.3.4.29-1/hadoop/lib/slf4j-log4j12-1.7.10.jar!/org/slf4j/impl/StaticLoggerBinder.class]
SLF4J: Found binding in [jar:file:/usr/hdp/2.3.4.29-1/zookeeper/lib/slf4j-log4j12-1.6.1.jar!/org/slf4j/impl/StaticLoggerBinder.class]
SLF4J: See http://www.slf4j.org/codes.html#multiple_bindings for an explanation.
SLF4J: Actual binding is of type [org.slf4j.impl.Log4jLoggerFactory]
16/07/18 15:05:00 WARN tool.BaseSqoopTool: Setting your password on the command-line is insecure. Consider using -P instead.
16/07/18 15:05:02 WARN sqoop.ConnFactory: Parameter --driver is set to an explicit driver however appropriate connection manager is not being set (via --connection-manager). Sqoop is going to fall back to org.apache.sqoop.manager.GenericJdbcManager. Please specify explicitly which connection manager should be used next time.
16/07/18 15:05:02 INFO manager.SqlManager: Using default fetchSize of 1000
16/07/18 15:05:18 WARN tool.EvalSqlTool: SQL exception executing statement: com.microsoft.sqlserver.jdbc.SQLServerException: Cannot drop the table 'iDeskTemp.dbo.GOPaoloni', because it does not exist or you do not have permission.
	at com.microsoft.sqlserver.jdbc.SQLServerException.makeFromDatabaseError(SQLServerException.java:216)
	at com.microsoft.sqlserver.jdbc.SQLServerStatement.getNextResult(SQLServerStatement.java:1515)
	at com.microsoft.sqlserver.jdbc.SQLServerPreparedStatement.doExecutePreparedStatement(SQLServerPreparedStatement.java:404)
	at com.microsoft.sqlserver.jdbc.SQLServerPreparedStatement$PrepStmtExecCmd.doExecute(SQLServerPreparedStatement.java:350)
	at com.microsoft.sqlserver.jdbc.TDSCommand.execute(IOBuffer.java:5696)
	at com.microsoft.sqlserver.jdbc.SQLServerConnection.executeCommand(SQLServerConnection.java:1715)
	at com.microsoft.sqlserver.jdbc.SQLServerStatement.executeCommand(SQLServerStatement.java:180)
	at com.microsoft.sqlserver.jdbc.SQLServerStatement.executeStatement(SQLServerStatement.java:155)
	at com.microsoft.sqlserver.jdbc.SQLServerPreparedStatement.execute(SQLServerPreparedStatement.java:332)
	at org.apache.sqoop.tool.EvalSqlTool.run(EvalSqlTool.java:68)
	at org.apache.sqoop.Sqoop.run(Sqoop.java:148)
	at org.apache.hadoop.util.ToolRunner.run(ToolRunner.java:76)
	at org.apache.sqoop.Sqoop.runSqoop(Sqoop.java:184)
	at org.apache.sqoop.Sqoop.runTool(Sqoop.java:226)
	at org.apache.sqoop.Sqoop.runTool(Sqoop.java:235)
	at org.apache.sqoop.Sqoop.main(Sqoop.java:244)

Java HotSpot(TM) 64-Bit Server VM warning: Using the ParNew young collector with the Serial old collector is deprecated and will likely be removed in a future release
WARNING: Use "yarn jar" to launch YARN applications.
Java HotSpot(TM) 64-Bit Server VM warning: Using the ParNew young collector with the Serial old collector is deprecated and will likely be removed in a future release
16/07/18 15:12:16 WARN conf.HiveConf: HiveConf of name hive.heapsize does not exist
16/07/18 15:12:16 WARN conf.HiveConf: HiveConf of name hive.optimize.mapjoin.mapreduce does not exist
16/07/18 15:12:16 WARN conf.HiveConf: HiveConf of name hive.auto.convert.sortmerge.join.noconditionaltask does not exist
16/07/18 15:12:16 WARN conf.HiveConf: HiveConf of name hive.server2.enable.impersonation does not exist
16/07/18 15:20:00 INFO sqoop.Sqoop: Running Sqoop version: 1.4.6.2.3.4.29-1
SLF4J: Class path contains multiple SLF4J bindings.
SLF4J: Found binding in [jar:file:/usr/hdp/2.3.4.29-1/hadoop/lib/slf4j-log4j12-1.7.10.jar!/org/slf4j/impl/StaticLoggerBinder.class]
SLF4J: Found binding in [jar:file:/usr/hdp/2.3.4.29-1/zookeeper/lib/slf4j-log4j12-1.6.1.jar!/org/slf4j/impl/StaticLoggerBinder.class]
SLF4J: See http://www.slf4j.org/codes.html#multiple_bindings for an explanation.
SLF4J: Actual binding is of type [org.slf4j.impl.Log4jLoggerFactory]
16/07/18 15:20:10 WARN tool.BaseSqoopTool: Setting your password on the command-line is insecure. Consider using -P instead.
16/07/18 15:20:10 WARN sqoop.ConnFactory: Parameter --driver is set to an explicit driver however appropriate connection manager is not being set (via --connection-manager). Sqoop is going to fall back to org.apache.sqoop.manager.GenericJdbcManager. Please specify explicitly which connection manager should be used next time.
16/07/18 15:20:10 INFO manager.SqlManager: Using default fetchSize of 1000
16/07/18 15:20:25 INFO tool.EvalSqlTool: 0 row(s) updated.
16/07/18 15:22:46 INFO sqoop.Sqoop: Running Sqoop version: 1.4.6.2.3.4.29-1
SLF4J: Class path contains multiple SLF4J bindings.
SLF4J: Found binding in [jar:file:/usr/hdp/2.3.4.29-1/hadoop/lib/slf4j-log4j12-1.7.10.jar!/org/slf4j/impl/StaticLoggerBinder.class]
SLF4J: Found binding in [jar:file:/usr/hdp/2.3.4.29-1/zookeeper/lib/slf4j-log4j12-1.6.1.jar!/org/slf4j/impl/StaticLoggerBinder.class]
SLF4J: See http://www.slf4j.org/codes.html#multiple_bindings for an explanation.
SLF4J: Actual binding is of type [org.slf4j.impl.Log4jLoggerFactory]
16/07/18 15:23:26 WARN tool.BaseSqoopTool: Setting your password on the command-line is insecure. Consider using -P instead.
16/07/18 15:23:30 WARN sqoop.ConnFactory: Parameter --driver is set to an explicit driver however appropriate connection manager is not being set (via --connection-manager). Sqoop is going to fall back to org.apache.sqoop.manager.GenericJdbcManager. Please specify explicitly which connection manager should be used next time.
16/07/18 15:23:32 INFO manager.SqlManager: Using default fetchSize of 1000
16/07/18 15:23:32 INFO tool.CodeGenTool: Beginning code generation
16/07/18 15:25:20 INFO manager.SqlManager: Executing SQL statement: SELECT t.* FROM iDeskTemp.dbo.GOPaoloni AS t WHERE 1=0
16/07/18 15:25:29 INFO manager.SqlManager: Executing SQL statement: SELECT t.* FROM iDeskTemp.dbo.GOPaoloni AS t WHERE 1=0
16/07/18 15:25:31 INFO orm.CompilationManager: HADOOP_MAPRED_HOME is /usr/hdp/2.3.4.29-1/hadoop-mapreduce
Note: /tmp/sqoop-gc096s/compile/54803a92958e09d14df150f7e8891042/iDeskTemp_dbo_GOPaoloni.java uses or overrides a deprecated API.
Note: Recompile with -Xlint:deprecation for details.
16/07/18 15:28:31 INFO orm.CompilationManager: Writing jar file: /tmp/sqoop-gc096s/compile/54803a92958e09d14df150f7e8891042/iDeskTemp.dbo.GOPaoloni.jar
16/07/18 15:28:32 INFO mapreduce.ExportJobBase: Beginning export of iDeskTemp.dbo.GOPaoloni
16/07/18 15:28:36 INFO manager.SqlManager: Executing SQL statement: SELECT t.* FROM iDeskTemp.dbo.GOPaoloni AS t WHERE 1=0
16/07/18 15:28:40 INFO impl.TimelineClientImpl: Timeline service address: http://ylpd273.kmdc.att.com:8188/ws/v1/timeline/
16/07/18 15:28:43 INFO client.ConfiguredRMFailoverProxyProvider: Failing over to rm2
16/07/18 15:28:43 INFO hdfs.DFSClient: Created HDFS_DELEGATION_TOKEN token 6642599 for gc096s on ha-hdfs:COREITKGMTNC20PROD01
16/07/18 15:28:43 INFO security.TokenCache: Got dt for hdfs://COREITKGMTNC20PROD01; Kind: HDFS_DELEGATION_TOKEN, Service: ha-hdfs:COREITKGMTNC20PROD01, Ident: (HDFS_DELEGATION_TOKEN token 6642599 for gc096s)
16/07/18 15:28:58 INFO input.FileInputFormat: Total input paths to process : 1
16/07/18 15:28:59 INFO input.FileInputFormat: Total input paths to process : 1
16/07/18 15:29:00 INFO mapreduce.JobSubmitter: number of splits:128
16/07/18 15:29:00 INFO mapreduce.JobSubmitter: Submitting tokens for job: job_1468781754723_17447
16/07/18 15:29:00 INFO mapreduce.JobSubmitter: Kind: HDFS_DELEGATION_TOKEN, Service: ha-hdfs:COREITKGMTNC20PROD01, Ident: (HDFS_DELEGATION_TOKEN token 6642599 for gc096s)
16/07/18 15:29:09 INFO impl.YarnClientImpl: Submitted application application_1468781754723_17447
16/07/18 15:29:10 INFO mapreduce.Job: The url to track the job: http://ylpd273.kmdc.att.com:8088/proxy/application_1468781754723_17447/
16/07/18 15:29:10 INFO mapreduce.Job: Running job: job_1468781754723_17447
16/07/18 15:29:18 INFO mapreduce.Job: Job job_1468781754723_17447 running in uber mode : false
16/07/18 15:29:18 INFO mapreduce.Job:  map 0% reduce 0%
16/07/18 15:29:30 INFO mapreduce.Job:  map 8% reduce 0%
16/07/18 15:29:33 INFO mapreduce.Job:  map 13% reduce 0%
16/07/18 15:29:34 INFO mapreduce.Job:  map 14% reduce 0%
16/07/18 15:29:36 INFO mapreduce.Job:  map 16% reduce 0%
16/07/18 15:29:38 INFO mapreduce.Job:  map 19% reduce 0%
16/07/18 15:29:39 INFO mapreduce.Job:  map 21% reduce 0%
16/07/18 15:29:41 INFO mapreduce.Job:  map 23% reduce 0%
16/07/18 15:29:42 INFO mapreduce.Job:  map 24% reduce 0%
16/07/18 15:29:44 INFO mapreduce.Job:  map 25% reduce 0%
16/07/18 15:29:46 INFO mapreduce.Job:  map 29% reduce 0%
16/07/18 15:29:48 INFO mapreduce.Job:  map 30% reduce 0%
16/07/18 15:29:49 INFO mapreduce.Job:  map 33% reduce 0%
16/07/18 15:29:50 INFO mapreduce.Job:  map 34% reduce 0%
16/07/18 15:29:52 INFO mapreduce.Job:  map 36% reduce 0%
16/07/18 15:29:53 INFO mapreduce.Job:  map 37% reduce 0%
16/07/18 15:29:55 INFO mapreduce.Job:  map 40% reduce 0%
16/07/18 15:29:56 INFO mapreduce.Job:  map 41% reduce 0%
16/07/18 15:29:58 INFO mapreduce.Job:  map 44% reduce 0%
16/07/18 15:30:00 INFO mapreduce.Job:  map 45% reduce 0%
16/07/18 15:30:02 INFO mapreduce.Job:  map 48% reduce 0%
16/07/18 15:30:05 INFO mapreduce.Job:  map 49% reduce 0%
16/07/18 15:30:09 INFO mapreduce.Job:  map 55% reduce 0%
16/07/18 15:30:19 INFO mapreduce.Job:  map 68% reduce 0%
16/07/18 15:30:21 INFO mapreduce.Job:  map 69% reduce 0%
16/07/18 15:30:22 INFO mapreduce.Job:  map 72% reduce 0%
16/07/18 15:30:24 INFO mapreduce.Job:  map 73% reduce 0%
16/07/18 15:30:25 INFO mapreduce.Job:  map 76% reduce 0%
16/07/18 15:30:27 INFO mapreduce.Job:  map 77% reduce 0%
16/07/18 15:30:29 INFO mapreduce.Job:  map 80% reduce 0%
16/07/18 15:30:31 INFO mapreduce.Job:  map 83% reduce 0%
16/07/18 15:30:34 INFO mapreduce.Job:  map 86% reduce 0%
16/07/18 15:30:36 INFO mapreduce.Job:  map 87% reduce 0%
16/07/18 15:30:37 INFO mapreduce.Job:  map 88% reduce 0%
16/07/18 15:30:39 INFO mapreduce.Job:  map 89% reduce 0%
16/07/18 15:30:40 INFO mapreduce.Job:  map 90% reduce 0%
16/07/18 15:30:41 INFO mapreduce.Job:  map 93% reduce 0%
16/07/18 15:30:45 INFO mapreduce.Job:  map 95% reduce 0%
16/07/18 15:30:49 INFO mapreduce.Job:  map 97% reduce 0%
16/07/18 15:30:51 INFO mapreduce.Job:  map 99% reduce 0%
16/07/18 15:30:56 INFO mapreduce.Job:  map 100% reduce 0%
16/07/18 15:31:08 INFO mapreduce.Job: Job job_1468781754723_17447 completed successfully
16/07/18 15:31:24 INFO mapred.ClientServiceDelegate: Application state is completed. FinalApplicationStatus=SUCCEEDED. Redirecting to job history server
16/07/18 15:32:33 INFO mapreduce.Job: Counters: 30
	File System Counters
		FILE: Number of bytes read=0
		FILE: Number of bytes written=26828092
		FILE: Number of read operations=0
		FILE: Number of large read operations=0
		FILE: Number of write operations=0
		HDFS: Number of bytes read=67064196
		HDFS: Number of bytes written=0
		HDFS: Number of read operations=515
		HDFS: Number of large read operations=0
		HDFS: Number of write operations=0
	Job Counters 
		Launched map tasks=128
		Other local map tasks=120
		Rack-local map tasks=8
		Total time spent by all maps in occupied slots (ms)=11578119
		Total time spent by all map tasks (ms)=11578119
		Total vcore-seconds taken by all map tasks=11578119
		Total megabyte-seconds taken by all map tasks=94847950848
	Map-Reduce Framework
		Map input records=257314
		Map output records=257314
		Input split bytes=19673
		Spilled Records=0
		Failed Shuffles=0
		Merged Map outputs=0
		GC time elapsed (ms)=9491
		CPU time spent (ms)=604600
		Physical memory (bytes) snapshot=50574671872
		Virtual memory (bytes) snapshot=1397121290240
		Total committed heap usage (bytes)=71687995392
	File Input Format Counters 
		Bytes Read=0
	File Output Format Counters 
		Bytes Written=0
16/07/18 15:32:38 INFO mapreduce.ExportJobBase: Transferred 63.9574 MB in 240.4783 seconds (272.3422 KB/sec)
16/07/18 15:32:38 INFO mapreduce.ExportJobBase: Exported 257314 records.
init
sqoop  eval \
-libjars '/usr/hdp/2.2.8.0-3150/sqoop/lib/sqljdbc4.jar' \
--driver 'com.microsoft.sqlserver.jdbc.SQLServerDriver' \
--connect 'jdbc:sqlserver://Clddev0sql01683.itservices.sbc.com\DD_ECCRIX01' \
--username 'iDESK-REPORTUSER' \
--password 'du3!Tax3s' \
--query 'drop table iDeskTemp.dbo.GOPaoloni' 
result:
Warning: /usr/hdp/2.3.4.29-1/accumulo does not exist! Accumulo imports will fail.
Please set $ACCUMULO_HOME to the root of your Accumulo installation.

['sr_accepted_date    ', 'string              ', '                    ']
['number_of_circuits  ', 'string              ', '                    ']
['sr_id               ', 'string              ', '                    ']
['is_this_a_managed_service', 'string              ', '                    ']
['number_of_sites     ', 'string              ', '                    ']
['order_type          ', 'string              ', '                    ']
['sr_order_type_and_numbers', 'string              ', '                    ']
['task_css_template   ', 'string              ', '                    ']
['oppty_id            ', 'string              ', '                    ']
['sr_productlist      ', 'string              ', '                    ']
['task_completed_actual_date', 'string              ', '                    ']
['task_name           ', 'string              ', '                    ']
['task_status         ', 'string              ', '                    ']
['task_last_updated_by', 'string              ', '                    ']
['task_product_group  ', 'string              ', '                    ']
['']
sqoop  eval \
-libjars '/usr/hdp/2.2.8.0-3150/sqoop/lib/sqljdbc4.jar' \
--driver 'com.microsoft.sqlserver.jdbc.SQLServerDriver' \
--connect 'jdbc:sqlserver://Clddev0sql01683.itservices.sbc.com\DD_ECCRIX01' \
--username 'iDESK-REPORTUSER' \
--password 'du3!Tax3s' \
--query 'create table iDeskTemp.dbo.GOPaoloni(
sr_accepted_date varchar(2000),number_of_circuits varchar(2000),sr_id varchar(2000),is_this_a_managed_service varchar(2000),number_of_sites varchar(2000),order_type varchar(2000),sr_order_type_and_numbers varchar(2000),task_css_template varchar(2000),oppty_id varchar(2000),sr_productlist varchar(2000),task_completed_actual_date varchar(2000),task_name varchar(2000),task_status varchar(2000),task_last_updated_by varchar(2000),task_product_group varchar(2000))' 
result:
Warning: /usr/hdp/2.3.4.29-1/accumulo does not exist! Accumulo imports will fail.
Please set $ACCUMULO_HOME to the root of your Accumulo installation.

sqoop  export -libjars '/usr/hdp/2.2.8.0-3150/sqoop/lib/sqljdbc4.jar' \
-m 128 \
--driver 'com.microsoft.sqlserver.jdbc.SQLServerDriver' \
--connect 'jdbc:sqlserver://Clddev0sql01683.itservices.sbc.com\DD_ECCRIX01' \
--username 'iDESK-REPORTUSER' \
--password 'du3!Tax3s' \
--table 'iDeskTemp.dbo.GOPaoloni' \
--export-dir 'hdfs://COREITKGMTNC20PROD01/sandbox/sandbox31/kpmg_ws/gopaoloni' \
--fields-terminated-by "\001" \
--lines-terminated-by "\\n" \
--input-null-string '\\N' \
--input-null-non-string '\\N' \
--batch
result:
Warning: /usr/hdp/2.3.4.29-1/accumulo does not exist! Accumulo imports will fail.
Please set $ACCUMULO_HOME to the root of your Accumulo installation.

